{
  "images" : [
    {
      "resizing" : {
        "mode" : "9-part",
        "center" : {
          "mode" : "tile",
          "width" : 1,
          "height" : 1
        },
        "cap-insets" : {
          "bottom" : 0,
          "top" : 51,
          "right" : 0,
          "left" : 51
        }
      },
      "idiom" : "universal",
      "filename" : "icon_alert_fail@1x.png",
      "scale" : "1x"
    },
    {
      "resizing" : {
        "mode" : "9-part",
        "center" : {
          "mode" : "stretch",
          "width" : 1,
          "height" : 105
        },
        "cap-insets" : {
          "bottom" : 0,
          "top" : 0,
          "right" : 0,
          "left" : 104
        }
      },
      "idiom" : "universal",
      "filename" : "icon_alert_fail@2x.png",
      "scale" : "2x"
    },
    {
      "resizing" : {
        "mode" : "9-part",
        "center" : {
          "mode" : "tile",
          "width" : 1,
          "height" : 1
        },
        "cap-insets" : {
          "bottom" : 0,
          "top" : 156,
          "right" : 0,
          "left" : 156
        }
      },
      "idiom" : "universal",
      "filename" : "icon_alert_fail@3x.png",
      "scale" : "3x"
    }
  ],
  "info" : {
    "version" : 1,
    "author" : "xcode"
  }
}