{
  "images" : [
    {
      "resizing" : {
        "mode" : "9-part",
        "center" : {
          "mode" : "tile",
          "width" : 234,
          "height" : 1
        },
        "cap-insets" : {
          "bottom" : 12,
          "top" : 98,
          "right" : 28,
          "left" : 21
        }
      },
      "idiom" : "universal",
      "filename" : "bg_challenge_report_fail.png",
      "scale" : "1x"
    },
    {
      "idiom" : "universal",
      "filename" : "bg_challenge_report_fail@2x.png",
      "scale" : "2x"
    },
    {
      "idiom" : "universal",
      "filename" : "bg_challenge_report_fail@3x.png",
      "scale" : "3x"
    }
  ],
  "info" : {
    "version" : 1,
    "author" : "xcode"
  }
}