{
  "images" : [
    {
      "resizing" : {
        "mode" : "9-part",
        "center" : {
          "mode" : "tile",
          "width" : 2,
          "height" : 24
        },
        "cap-insets" : {
          "bottom" : 15,
          "top" : 27,
          "right" : 4,
          "left" : 13
        }
      },
      "idiom" : "universal",
      "filename" : "icon_history_bg.png",
      "scale" : "1x"
    },
    {
      "resizing" : {
        "mode" : "9-part",
        "center" : {
          "mode" : "tile",
          "width" : 3,
          "height" : 19
        },
        "cap-insets" : {
          "bottom" : 56,
          "top" : 54,
          "right" : 8,
          "left" : 26
        }
      },
      "idiom" : "universal",
      "filename" : "icon_history_bg@2x.png",
      "scale" : "2x"
    },
    {
      "resizing" : {
        "mode" : "9-part",
        "center" : {
          "mode" : "tile",
          "width" : 5,
          "height" : 16
        },
        "cap-insets" : {
          "bottom" : 98,
          "top" : 81,
          "right" : 12,
          "left" : 39
        }
      },
      "idiom" : "universal",
      "filename" : "icon_history_bg@3x.png",
      "scale" : "3x"
    }
  ],
  "info" : {
    "version" : 1,
    "author" : "xcode"
  }
}