{
  "images" : [
    {
      "idiom" : "universal",
      "filename" : "icon_lol_yuezhan_20wan.png",
      "scale" : "1x"
    },
    {
      "idiom" : "universal",
      "filename" : "icon_lol_yuezhan_20wan@2x.png",
      "scale" : "2x"
    },
    {
      "idiom" : "universal",
      "filename" : "icon_lol_yuezhan_20wan@3x.png",
      "scale" : "3x"
    }
  ],
  "info" : {
    "version" : 1,
    "author" : "xcode"
  }
}